<svg width="238" height="58" viewBox="0 0 238 58" fill="none" xmlns="http://www.w3.org/2000/svg">
<path fill-rule="evenodd" clip-rule="evenodd" d="M140.054 47.8989C149.896 47.8989 157.875 39.9203 157.875 30.0781C157.875 20.2359 149.896 12.2573 140.054 12.2573C130.212 12.2573 122.233 20.2359 122.233 30.0781C122.233 39.9203 130.212 47.8989 140.054 47.8989ZM140.054 43.3489C147.383 43.3489 153.325 37.4074 153.325 30.0781C153.325 22.7488 147.383 16.8073 140.054 16.8073C132.725 16.8073 126.783 22.7488 126.783 30.0781C126.783 37.4074 132.725 43.3489 140.054 43.3489Z" fill="white"/>
<path d="M194.07 39.514C195.092 40.2722 195.304 41.732 194.408 42.6348C191.18 45.8859 186.706 47.8989 181.762 47.8989C171.92 47.8989 163.941 39.9203 163.941 30.0781C163.941 20.2359 171.92 12.2573 181.762 12.2573C187.312 12.2573 192.27 14.7943 195.538 18.7718C196.326 19.7312 196.011 21.1301 194.969 21.8063C193.905 22.4978 192.492 22.1647 191.644 21.2195C189.214 18.5111 185.687 16.8073 181.762 16.8073C174.433 16.8073 168.491 22.7488 168.491 30.0781C168.491 37.4074 174.433 43.3489 181.762 43.3489C185.236 43.3489 188.399 42.014 190.764 39.8292C191.677 38.9861 193.072 38.7736 194.07 39.514Z" fill="white"/>
<path d="M229.921 47.8989C228.589 47.93 224.798 47.8989 222.126 47.93C221.089 47.9133 220.208 47.8989 219.679 47.8989C209.837 47.8989 201.858 39.9201 201.858 30.0781C201.858 20.2361 209.837 12.2573 219.679 12.2573C229.127 12.2573 236.857 19.6099 237.461 28.9054C237.486 29.0406 237.5 29.1776 237.5 29.3198V37.2823C237.5 38.5386 236.481 39.5573 235.225 39.5573C233.969 39.5573 232.95 38.5386 232.95 37.2823V30.4573L232.947 30.3403L232.95 30.0781C232.95 22.7488 227.007 16.8073 219.679 16.8073C212.35 16.8073 206.408 22.7488 206.408 30.0781C206.408 37.4074 212.35 43.3489 219.679 43.3489H231.054C232.31 43.3489 233.329 44.3676 233.329 45.6239C233.329 46.8803 232.31 47.8989 231.054 47.8989H229.921Z" fill="white"/>
<path d="M101.948 43.3489L102.137 43.3498C102.158 43.3498 102.178 43.3498 102.199 43.3497C102.219 43.3497 102.24 43.3497 102.26 43.3496C102.405 43.3493 102.554 43.3489 102.706 43.3489C104.876 43.3489 106.543 42.5674 107.795 41.6018C109.047 40.6362 109.673 39.4188 109.673 37.9495C109.673 36.4382 109.005 35.3257 107.67 34.612C106.334 33.8564 104.268 33.1217 101.472 32.408C98.9268 31.7363 96.8402 31.0646 95.2126 30.393C93.6268 29.6793 92.2496 28.6508 91.0811 27.3074C89.9543 25.922 89.391 24.1168 89.391 21.8919C89.391 21.816 89.389 21.7875 89.3876 21.7666C89.3857 21.738 89.3847 21.7236 89.391 21.6215V21.341C89.5256 19.7881 90.0794 18.3873 90.964 17.1061C92.0073 15.5948 93.4887 14.3983 95.4084 13.5167C97.2864 12.6771 99.4748 12.2573 101.937 12.2573C102.004 12.2573 102.07 12.2575 102.137 12.2578C107.687 12.2578 112.644 14.7943 115.913 18.7718C116.701 19.7312 116.386 21.1301 115.344 21.8063C114.279 22.4978 112.866 22.1647 112.019 21.2195C109.589 18.5112 106.062 16.8073 102.137 16.8073H101.948C101.876 16.8074 101.832 16.8073 101.758 16.8073C99.5881 16.8073 98.1001 17.5888 96.8482 18.5544C95.9606 19.2389 95.3877 20.05 95.1293 20.9877C95.0623 21.2309 95.045 21.4842 95.045 21.7364V22.1156C95.045 23.2491 95.4421 23.9699 96.1516 24.7256C96.9028 25.4392 97.8209 26.027 98.9059 26.4887C100.033 26.9086 101.577 27.3913 103.538 27.9371C106 28.6088 108.004 29.2805 109.548 29.9522C111.092 30.5819 112.406 31.5474 113.491 32.8488C114.618 34.1502 115.202 35.8504 115.244 37.9495C115.244 39.8386 114.722 41.5388 113.679 43.0501C112.636 44.5614 111.154 45.7579 109.235 46.6395C107.357 47.4791 105.168 47.8989 102.706 47.8989C102.579 47.8989 102.452 47.8983 102.325 47.8971L102.137 47.8989C96.5875 47.8989 91.8179 45.4204 88.5496 41.4429C87.7612 40.4835 88.0765 39.0846 89.118 38.4084C90.1829 37.7169 91.5959 38.05 92.4437 38.9952C94.8346 41.6603 98.0984 43.2955 101.948 43.3489Z" fill="white"/>
<path fill-rule="evenodd" clip-rule="evenodd" d="M6.69053 38.0774C2.81845 36.9032 0 33.3059 0 29.0504C0 24.8082 2.8007 21.2202 6.65392 20.0345C10.4303 8.40623 21.3542 0 34.2415 0C47.111 0 58.0225 8.38302 61.8134 19.9863C65.7497 21.1203 68.6291 24.7491 68.6291 29.0504C68.6291 33.365 65.7319 37.0029 61.7768 38.1249C57.9527 49.6705 47.0698 58 34.2415 58C21.3956 58 10.5005 49.6477 6.69053 38.0774ZM56.8897 38.4819H12.1182C15.7874 47.2244 24.4286 53.3647 34.504 53.3647C44.5793 53.3647 53.2205 47.2244 56.8897 38.4819ZM56.8494 19.6189C53.1576 10.9271 44.5426 4.83141 34.504 4.83141C24.4653 4.83141 15.8503 10.9271 12.1585 19.6189H56.8494ZM4.0134 29.0505C4.0134 26.0582 6.43916 23.6324 9.43148 23.6324H59.1976C62.1899 23.6324 64.6157 26.0582 64.6157 29.0505C64.6157 32.0428 62.1899 34.4686 59.1976 34.4686H9.43147C6.43915 34.4686 4.0134 32.0428 4.0134 29.0505Z" fill="white"/>
</svg>
